<?xml version="1.0" standalone="no"?>
<!DOCTYPE svg PUBLIC "-//W3C//DTD SVG 20010904//EN"
 "http://www.w3.org/TR/2001/REC-SVG-20010904/DTD/svg10.dtd">
<svg version="1.0" xmlns="http://www.w3.org/2000/svg"
 width="512.000000pt" height="512.000000pt" viewBox="0 0 512.000000 512.000000"
 preserveAspectRatio="xMidYMid meet">
<metadata>
Created by potrace 1.14, written by Peter Selinger 2001-2017
</metadata>
<g transform="translate(0.000000,512.000000) scale(0.100000,-0.100000)"
fill="#000000" stroke="none">
<path d="M2567 5113 c-4 -3 -7 -54 -7 -113 l0 -107 -117 -7 c-590 -33 -1118
-270 -1533 -686 -579 -580 -807 -1415 -605 -2215 122 -483 413 -937 799 -1243
42 -34 81 -62 86 -62 8 0 187 240 196 264 3 8 -24 36 -63 66 -213 165 -426
435 -552 700 -465 975 -58 2141 919 2630 225 113 573 200 801 200 l69 0 0
-104 c0 -137 6 -142 96 -80 446 304 505 347 502 362 -3 17 -553 402 -573 402
-7 0 -15 -3 -18 -7z"/>
<path d="M3830 4313 c-50 -69 -94 -132 -96 -138 -3 -6 43 -51 101 -99 329
-273 579 -692 664 -1113 196 -964 -337 -1924 -1255 -2261 -201 -74 -443 -122
-615 -122 l-69 0 0 104 c0 137 -6 142 -96 80 -446 -304 -505 -347 -502 -362 4
-21 557 -404 578 -400 12 3 16 25 18 114 l3 111 117 7 c653 37 1258 338 1665
828 280 337 457 732 524 1168 24 161 24 502 -1 660 -79 504 -302 952 -649
1303 -103 105 -269 247 -287 247 -4 0 -49 -57 -100 -127z"/>
<path d="M2372 4000 c-41 -25 -45 -35 -72 -202 l-23 -137 -81 -26 c-45 -15
-109 -42 -144 -61 -34 -19 -68 -34 -73 -34 -6 0 -61 35 -123 79 -61 43 -121
82 -134 85 -48 15 -82 -4 -185 -106 -167 -164 -169 -171 -70 -315 36 -54 76
-111 88 -126 l22 -29 -38 -76 c-21 -43 -48 -109 -61 -148 l-22 -72 -145 -22
c-138 -22 -148 -25 -178 -56 l-33 -32 0 -163 c0 -233 -1 -232 221 -268 70 -12
129 -21 132 -21 3 0 13 -24 22 -52 9 -29 37 -96 62 -149 l45 -96 -67 -92 c-94
-131 -105 -151 -105 -195 0 -37 7 -47 123 -163 164 -163 157 -163 356 -19 50
36 96 66 101 66 6 0 34 -12 63 -27 29 -14 92 -41 142 -59 l90 -32 22 -133 c24
-145 41 -190 79 -208 15 -7 87 -11 180 -11 165 0 202 8 224 51 8 14 56 263 60
305 0 1 35 14 78 29 42 15 107 42 143 61 l66 33 118 -85 c126 -90 149 -100
192 -89 42 10 251 221 264 266 14 44 5 63 -97 208 l-73 103 38 77 c21 42 49
108 61 147 l23 71 151 26 c141 24 153 28 178 56 l28 31 0 170 0 170 -27 30
c-25 28 -40 33 -158 55 -71 14 -139 25 -151 25 -16 0 -24 12 -38 58 -10 31
-38 99 -62 150 l-43 93 73 102 c95 132 109 160 100 200 -9 42 -213 252 -260
267 -44 15 -76 0 -207 -94 l-106 -77 -93 45 c-51 25 -118 52 -149 61 l-56 16
-23 137 c-27 167 -31 177 -72 202 -29 18 -51 20 -188 20 -137 0 -159 -2 -188
-20z m365 -925 c170 -57 300 -191 348 -360 21 -70 23 -219 5 -285 -50 -184
-204 -337 -385 -385 -119 -31 -268 -15 -383 41 -65 32 -165 122 -207 189 -63
99 -79 157 -79 290 1 133 17 196 75 286 66 104 181 193 293 229 94 29 236 27
333 -5z"/>
</g>
</svg>
